…
The top correlating variables are:

```r
cor(x_train) %>%
  as.data.frame() %>%
  mutate(var1 = rownames(.)) %>%
  gather(var2, value, -var1) %>%
  arrange(desc(value)) %>%
  group_by(value) %>%
  filter(row_number()==1)
```

```
## # A tibble: 781 x 3
## # Groups:   value [781]
##    var1             var2             value
##    <chr>            <chr>            <dbl>
##  1 roll_belt        roll_belt        1    
##  2 total_accel_belt roll_belt        0.981
##  3 accel_belt_y     total_accel_belt 0.928
##  4 accel_belt_y     roll_belt        0.925
##  5 magnet_belt_x    accel_belt_x     0.892
##  6 accel_dumbbell_z yaw_dumbbell     0.849
##  7 yaw_belt         roll_belt        0.815
##  8 magnet_arm_z     magnet_arm_y     0.814
##  9 magnet_arm_x     accel_arm_x      0.814
## 10 accel_dumbbell_x pitch_dumbbell   0.808
## # ... with 771 more rows
```
…
